﻿{
 "location"[
    
   {
      "name": "Trinidad and Tobago",
	"data"[
		{"name": "Arima"},
		{"name": "Chaguanas"},
		{"name": "Port of Spain"},
		{"name": "San Fernando"}
	      ]

   }

  ]
}